<?xml version="1.0" encoding="utf-8"?>
<!-- Generator: Adobe Illustrator 19.1.0, SVG Export Plug-In . SVG Version: 6.00 Build 0)  -->
<svg version="1.1" id="Layer_1" xmlns="http://www.w3.org/2000/svg" xmlns:xlink="http://www.w3.org/1999/xlink" x="0px" y="0px"
	 viewBox="0 0 48 48" style="enable-background:new 0 0 48 48;" xml:space="preserve">
<style type="text/css">
	.st0{fill:#DAF1F1;}
	.st1{fill:#D6D7D9;}
</style>
<rect class="st0" width="48" height="48"/>
<g>
	<g>
		<path d="M33.9,15.2c0.8,0,1.5-0.4,1.8-1c0.3-0.6,0.2-1.4-0.2-2L30,5.1c-0.4-0.6-1-0.9-1.7-0.9c-0.7,0-1.3,0.3-1.7,0.9l-5.2,7.3
			c-0.5,0.6-0.6,1.4-0.2,2c0.3,0.6,1,1,1.8,1l4.2-0.1c-0.2,14-8.4,24.2-19.8,24.4H6l0,2.7h1.4c13-0.3,22.3-11.5,22.5-27L33.9,15.2z
			 M28.4,7.4l4,5.2l-7.7,0.2L28.4,7.4z"/>
		<path d="M19.6,20c-0.1-4.6-4-8.2-8.5-8.1c-4.6,0.1-8.2,4-8.1,8.5s4,8.2,8.5,8.1S19.7,24.6,19.6,20z M5.7,20.2
			c-0.1-3.1,2.5-5.6,5.5-5.7S16.9,17,17,20s-2.5,5.6-5.5,5.7C8.4,25.9,5.8,23.3,5.7,20.2z"/>
		<polygon points="44.8,29.9 42.9,28.1 37.1,34 31.1,28.3 29.3,30.2 35.2,36.1 29.4,42 31.4,43.8 37.2,37.9 43.2,43.6 45,41.7 
			39.1,36 		"/>
	</g>
</g>
</svg>
