<?xml version="1.0" encoding="utf-8"?>
<!-- Generator: Adobe Illustrator 19.1.0, SVG Export Plug-In . SVG Version: 6.00 Build 0)  -->
<svg version="1.1" id="Layer_1" xmlns="http://www.w3.org/2000/svg" xmlns:xlink="http://www.w3.org/1999/xlink" x="0px" y="0px"
	 viewBox="0 0 48 48" style="enable-background:new 0 0 48 48;" xml:space="preserve">
<style type="text/css">
	.st0{fill:#DAF1F1;}
	.st1{fill:#D6D7D9;}
</style>
<rect x="0" class="st0" width="48" height="48"/>
<g>
	<g>
		<path d="M44.3,11.1h-3.6v3h3.5v25.9H12.6v-0.5h-3v0.7c0,1.4,1.2,2.6,2.6,2.6h32.3c1.4,0,2.6-1.2,2.6-2.6V13.6
			C46.9,12.1,45.7,11.1,44.3,11.1z"/>
		<path d="M38.4,34.4V7.9c0-1.4-1.2-2.6-2.6-2.6H3.6C2.2,5.3,1,6.5,1,7.9v26.5c0,1.4,1.2,2.6,2.6,2.6h32.3
			C37.2,36.9,38.4,35.8,38.4,34.4z M35.7,34.2H3.9V8h31.8V34.2z"/>
		<polygon points="14.6,25.8 18,29.1 23.3,24.1 31.6,31.9 33.5,29.8 23.3,20.1 18,25.1 14.4,21.6 7,29.9 9.1,31.8 		"/>
		<path d="M11.1,20.1c2.6,0,4.6-2,4.6-4.6s-2-4.6-4.6-4.6s-4.6,2-4.6,4.6S8.6,20.1,11.1,20.1z M11.1,13.7c1,0,1.8,0.9,1.8,1.8
			s-0.9,1.8-1.8,1.8s-1.8-0.9-1.8-1.8S10.1,13.7,11.1,13.7z"/>
	</g>
</g>
</svg>
