<?xml version="1.0" encoding="utf-8"?>
<!-- Generator: Adobe Illustrator 19.1.0, SVG Export Plug-In . SVG Version: 6.00 Build 0)  -->
<svg version="1.1" id="Layer_1" xmlns="http://www.w3.org/2000/svg" xmlns:xlink="http://www.w3.org/1999/xlink" x="0px" y="0px"
	 viewBox="0 0 48 48" style="enable-background:new 0 0 48 48;" xml:space="preserve">
<style type="text/css">
	.st0{fill:#DAF1F1;}
	.st1{fill:#D6D7D9;}
</style>
<rect x="0" class="st0" width="48" height="48"/>
<g>
	<g>
		<path d="M5.5,41.4V15.5c0-0.7,0.5-1.9,1-2.4l7.7-8.4c0.5-0.5,1.6-1,2.3-1V14H9.3c-0.8,0-1.4,0.6-1.4,1.4c0,0.8,0.6,1.4,1.4,1.4
			h8.5c0.8,0,1.4-0.6,1.4-1.4V3.7H35c0.3,0,0.6,0.3,0.6,0.6v10.6c0.1,0,0.2,0,0.4,0c0.8,0,1.6,0.3,2.2,0.9l0.3,0.3V4.3
			C38.4,2.5,37,1,35.1,1H16.4c-1.5,0-3.2,0.8-4.2,1.9l-7.7,8.4c-1,1.1-1.7,2.8-1.7,4.3v25.9c0,1.9,1.5,3.3,3.3,3.3h7l0.6-2.7H6.1
			C5.7,42,5.5,41.7,5.5,41.4z"/>
		<path d="M35.6,41.4c0,0.3-0.3,0.6-0.6,0.6h-3.2L29,44.7h6c1.9,0,3.3-1.5,3.3-3.3v-6l-2.7,2.7V41.4L35.6,41.4z"/>
		<path d="M44.8,24.8L37,17c-0.5-0.5-1.5-0.5-2,0L17.1,34.9l0,0c0,0,0,0-0.1,0.1c-0.1,0.1-0.1,0.1-0.1,0.2v0.1
			c0,0.1-0.1,0.2-0.1,0.3l0,0l0,0l0,0l-2,9.8c-0.1,0.5,0.1,0.9,0.4,1.3c0.3,0.3,0.6,0.4,1,0.4c0.1,0,0.2,0,0.3,0l9.8-2l0,0
			c0.1,0,0.2-0.1,0.3-0.1h0.1c0.1,0,0.1-0.1,0.2-0.1c0,0,0,0,0.1-0.1l0,0l17.8-18c0.3-0.3,0.4-0.6,0.4-1S45,25,44.8,24.8z
			 M35.9,19.8l2,2l-16,16l-2-2L35.9,19.8z M17.8,43.9l1.1-5.3l2.1,2.1l2.1,2.1L17.8,43.9z M25.8,41.7l-2-2l16.1-16l2,2L25.8,41.7z"
			/>
	</g>
</g>
</svg>
