<?xml version="1.0" encoding="utf-8"?>
<!-- Generator: Adobe Illustrator 19.1.0, SVG Export Plug-In . SVG Version: 6.00 Build 0)  -->
<svg version="1.1" id="Layer_1" xmlns="http://www.w3.org/2000/svg" xmlns:xlink="http://www.w3.org/1999/xlink" x="0px" y="0px"
	 viewBox="0 0 48 48" style="enable-background:new 0 0 48 48;" xml:space="preserve">
<style type="text/css">
	.st0{fill:#DAF1F1;}
	.st1{fill:#D6D7D9;}
</style>
<rect x="0" class="st0" width="48" height="48"/>
<g>
	<g>
		<path d="M42,15.7c-4.2-3.2-11-6.1-18-6.1s-13.9,3.1-18,6.1c-3.4,2.5-6,6.3-6,8.3s3.3,6,6,8.4c4.1,3.6,10.4,6,18,6s13.9-2.4,18-6
			c2.7-2.4,6-6.4,6-8.4S45.4,18.2,42,15.7z M40.1,30c-3.8,3.5-9.6,5.3-16.1,5.3S11.8,33.4,7.9,30C5.4,27.8,3.3,25,3,23.9
			c0.2-1,1.9-3.7,4.7-5.8c3.6-2.7,9.8-5.6,16.3-5.6s12.7,2.9,16.3,5.6c2.8,2,4.5,4.8,4.7,5.8C44.6,25,42.6,27.8,40.1,30z"/>
		<path d="M24,14.3c-5.4,0-9.7,4.3-9.7,9.7s4.3,9.7,9.7,9.7s9.7-4.3,9.7-9.7S29.4,14.3,24,14.3z M24,31.1c-3.9,0-7.1-3.2-7.1-7.1
			s3.2-7.1,7.1-7.1s7.1,3.2,7.1,7.1S27.9,31.1,24,31.1z"/>
		<path d="M24,18.9v2.6c1.3,0,2.5,1.1,2.5,2.5s-1.1,2.5-2.5,2.5c-1.3,0-2.5-1.1-2.5-2.5h-2.6c0,2.8,2.3,5.1,5.1,5.1s5.1-2.3,5.1-5.1
			S26.8,18.9,24,18.9z"/>
	</g>
</g>
</svg>
