<?xml version="1.0" encoding="utf-8"?>
<!-- Generator: Adobe Illustrator 19.1.0, SVG Export Plug-In . SVG Version: 6.00 Build 0)  -->
<svg version="1.1" id="Layer_1" xmlns="http://www.w3.org/2000/svg" xmlns:xlink="http://www.w3.org/1999/xlink" x="0px" y="0px"
	 viewBox="0 0 48 48" style="enable-background:new 0 0 48 48;" xml:space="preserve">
<style type="text/css">
	.st0{fill:#DAF1F1;}
	.st1{fill:#D6D7D9;}
</style>
<rect x="0" class="st1" width="48" height="48"/>
<g>
	<g>
		<path d="M37.3,16.3L23.9,7.1l-13.4,9.2H3.7L22.1,3.6C23,3,24.8,3,25.7,3.6l18.4,12.7H37.3z M15,16.3l8.9-6l8.9,6H15z M46.5,14.7
			L27.3,1.6c-0.9-0.6-2-0.9-3.3-0.9s-2.4,0.3-3.3,0.9L1.5,14.7c-1.5,1-1.6,2-1.4,2.7c0.2,0.6,0.8,1.4,2.7,1.4h42.5
			c1.8,0,2.5-0.8,2.7-1.4C48.1,16.8,47.9,15.8,46.5,14.7"/>
		<path d="M9.6,23.9h1.8v16.7H9.6V23.9z M20.4,40.5H14V23.7h6.4V40.5z M33.8,40.5h-6.4V23.7h6.4V40.5z M36.4,23.9h1.8v16.7h-1.8
			V23.9z M23,23.9h1.8v16.7H23V23.9z M7,43.1h7h6.4h7h6.4h7h3.4v-2.6h-3.4V23.7h3.4v-2.6H3.6v2.6h3.4v16.8H3.6v2.6H7z"/>
		<rect x="0.9" y="44.8" width="45.9" height="2.6"/>
	</g>
</g>
</svg>
