<?xml version="1.0" encoding="utf-8"?>
<!-- Generator: Adobe Illustrator 21.0.0, SVG Export Plug-In . SVG Version: 6.00 Build 0)  -->
<svg version="1.1" id="Layer_1" xmlns="http://www.w3.org/2000/svg" xmlns:xlink="http://www.w3.org/1999/xlink" x="0px" y="0px"
	 viewBox="0 0 20.5 7.9" style="enable-background:new 0 0 20.5 7.9;" xml:space="preserve">
<style type="text/css">
	.st0{fill:#D31039;}
</style>
<path class="st0" d="M2,1.6v1.5h3.6v1.5H2v1.6h4.2v1.5H0V0.1h6v1.5H2z"/>
<path class="st0" d="M13.4,0.9l-0.7,1.5c-0.7-0.5-1.6-0.7-2.5-0.8c-0.5,0-0.9,0.2-0.9,0.6c0,1.3,4.1,0.6,4.1,3.4
	c0,1.5-1.4,2.3-3.1,2.3c-1.3,0-2.5-0.4-3.5-1.2l0.8-1.5c0.8,0.7,1.8,1.1,2.8,1.2c0.6,0,1-0.2,1-0.7c0-1.4-4.1-0.6-4.1-3.3
	C7.3,0.9,8.5,0,10.4,0C11.4,0,12.5,0.3,13.4,0.9z"/>
<path class="st0" d="M20.5,0.9l-0.7,1.5c-0.7-0.5-1.6-0.7-2.5-0.8c-0.5,0-0.9,0.2-0.9,0.6c0,1.3,4.1,0.6,4.1,3.4
	c0,1.5-1.4,2.3-3.1,2.3c-1.3,0-2.5-0.4-3.5-1.2l0.8-1.5c0.8,0.7,1.8,1.1,2.8,1.2c0.6,0,1-0.2,1-0.7c0-1.4-4.1-0.6-4.1-3.3
	c0-1.4,1.2-2.3,3.1-2.3C18.5,0,19.6,0.3,20.5,0.9z"/>
</svg>
